Data Analysis Skill Test - 4intelligence
…
## `summarise()` regrouping output by 'product' (override with `.groups` argument)

# sort
ex5<-ex5%>%
dplyr::group_by(product)%>%
dplyr::mutate(rank = row_number(desc(usd)))%>%
dplyr::filter(rank <= 5) %>%
dplyr::arrange(product,desc(rank))

ex5

## # A tibble: 30 x 4
## # Groups:   product [6]
##    product      state         usd  rank
##    <chr>        <chr>       <dbl> <int>
##  1 corn         SP      429869136     5
##  2 corn         MS      886357880     4
##  3 corn         PR     1511169840     3
##  4 corn         GO     1699670461     2
##  5 corn         MT    10036492224     1
##  6 soybean_meal BA     1048984769     5
##  7 soybean_meal GO     2350365249     4
##  8 soybean_meal RS     2390082997     3
##  9 soybean_meal PR     3560013088     2
## 10 soybean_meal MT     6205779717     1
## # ... with 20 more rows
…
